{"current_page":1,"data":[{"id":623,"name":"V\u00f4 Th\u01b0\u1ee3ng Th\u1ea7n \u0110\u1ebf 2: Th\u1ea7n \u0110\u1ea1o \u0110\u1ebf T\u00f4n","slug":"vo-thuong-than-de-2-than-dao-de-ton","original_name":"Shen Dao Di Zun","total_episodes":48,"description":"Thi\u1ebfu ni\u00ean T\u1ea7n D\u01b0\u01a1ng t\u1ed1 ch\u1ea5t phi ph\u00e0m, s\u1edf h\u1eefu \"Tinh M\u00f4n\" - m\u1ed9t th\u1ea7n kh\u00ed tu luy\u1ec7n m\u00e0 ai c\u0169ng ao \u01b0\u1edbc c\u00f3 \u0111\u01b0\u1ee3c. Tuy nhi\u00ean, may m\u1eafn n\u00e0y c\u1ee7a c\u1eadu \u0111\u00e3 b\u1ecb ng\u01b0\u1eddi ta c\u01b0\u1edbp m\u1ea5t ch\u1ec9 trong m\u1ed9t \u0111\u00eam. L\u00fac c\u1eadn k\u1ec1 c\u00e1i ch\u1ebft, b\u1ea3o v\u1eadt t\u1ed1i cao \"Phong Th\u1ea7n Ch\u00e2u\" \u1edf trong ng\u01b0\u1eddi T\u1ea7n D\u01b0\u01a1ng b\u1ed7ng nhi\u00ean \u0111\u01b0\u1ee3c k\u00edch ho\u1ea1t.","time":null,"thumb_url":"https:\/\/phim.nguonc.com\/public\/images\/Film\/45t765h766.jpg","poster_url":"https:\/\/phim.nguonc.com\/public\/images\/Film\/45t765h766.jpg","id_category":73,"id_country":7,"id_genre":"5","quality":"1","language":"1","director":null,"casts":null,"hot":1,"hot_slider":null,"trailer_url":null,"status":1,"created_at":"2025-02-18T10:11:29.000000Z","updated_at":"2025-02-18T10:11:29.000000Z","episode_count":40,"category":{"id_category":73,"name":"Phim B\u1ed9","slug":"phim-bo","status":1},"movie_genre":[{"id":5,"name":"Phim v\u00f5 thu\u1eadt","slug":"phim-vo-thuat","status":1,"pivot":{"id_movie":623,"id_genre":5}}]},{"id":622,"name":"Tr\u01b0\u1eddng Sinh Gi\u1edbi","slug":"truong-sinh-gioi","original_name":"World of Immortals","total_episodes":26,"description":"Tr\u00ean \u0111\u1eddi n\u00e0y li\u1ec7u c\u00f3 ai b\u1ea5t t\u1eed? D\u00f9 c\u00f3 t\u00e0i hoa tuy\u1ec7t \u0111\u1ec9nh, n\u1ed5i ti\u1ebfng thi\u00ean h\u1ea1, cu\u1ed1i c\u00f9ng c\u0169ng ph\u1ea3i h\u00f3a th\u00e0nh \u0111\u1ed1ng x\u01b0\u01a1ng kh\u00f4; D\u00f9 c\u00f3 l\u00e0 con c\u1ee7a tr\u1eddi, n\u1eafm trong tay v\u1ea1n d\u1eb7m giang s\u01a1n, cu\u1ed1i c\u00f9ng c\u0169ng s\u1ebd bi\u1ebfn th\u00e0nh m\u1ed9t n\u1eafm ho\u00e0ng th\u1ed5. C\u00e2u chuy\u1ec7n k\u1ec3 v\u1ec1 Ti\u00eau Th\u1ea7n b\u1ecb thi\u00ean n\u1eef ho\u00e0ng gia Tri\u1ec7u L\u00e2m Nhi truy s\u00e1t, v\u00f4 t\u00ecnh l\u1ea1c v\u00e0o \u0110\u1ea3o R\u1ed3ng hoang d\u00e3 \u1edf Tr\u01b0\u1eddng Sinh Gi\u1edbi. \u0110\u00e2y l\u00e0 m\u1ed9t con \u0111\u01b0\u1eddng c\u1ee5t kh\u00f4ng c\u00f3 l\u1ed1i v\u1ec1 nh\u00e0, ph\u1ea3i \u0111\u1ed1i m\u1eb7t v\u1edbi \u0111\u1ea7y r\u1eaby qu\u00e1i th\u00fa v\u00e0 k\u1ebb th\u00f9. S\u1ef1 l\u01b0u luy\u1ebfn v\u1edbi ng\u01b0\u1eddi th\u00e2n, b\u1eb1ng h\u1eefu v\u00e0 c\u1ed1 h\u01b0\u01a1ng lu\u00f4n l\u00e0 \u0111i\u1ec3m t\u1ef1a \u0111\u1ec3 Ti\u00eau Th\u1ea7n \u0111\u1ee9ng v\u1eefng chi\u1ebfn \u0111\u1ea5u v\u1edbi qu\u00e1i th\u00fa v\u00e0 k\u1ebb th\u00f9 \u1edf v\u00f9ng \u0111\u1ea5t k\u1ef3 l\u1ea1 n\u00e0y. Trong cu\u1ed9c chi\u1ebfn cu\u1ed3ng nhi\u1ec7t, s\u1ef1 c\u00e1m d\u1ed7 c\u1ee7a c\u1ea3m x\u00fac v\u00e0 d\u1ee5c v\u1ecdng, Ti\u00eau Th\u1ea7n \u0111i theo b\u01b0\u1edbc ch\u00e2n c\u1ee7a nh\u1eefng ng\u01b0\u1eddi tr\u01b0\u1eddng sinh b\u1ea5t t\u1eed, t\u1eeb t\u1eeb v\u00e9n l\u00ean b\u1ee9c m\u00e0n b\u00ed \u1ea9n v\u1ec1 m\u1ed9t th\u1ebf gi\u1edbi th\u1ea7n tho\u1ea1i c\u1ed5 x\u01b0a b\u1ecb c\u00e1t b\u1ee5i phong","time":"25 ph\u00fat\/t\u1eadp","thumb_url":"https:\/\/phim.nguonc.com\/public\/images\/Post\/9\/truong-sinh-gioi.jpg","poster_url":"https:\/\/phim.nguonc.com\/public\/images\/Post\/9\/truong-sinh-gioi-1.jpg","id_category":73,"id_country":7,"id_genre":"5","quality":"1","language":"1","director":null,"casts":null,"hot":1,"hot_slider":null,"trailer_url":null,"status":1,"created_at":"2025-02-18T10:11:28.000000Z","updated_at":"2025-02-18T10:11:28.000000Z","episode_count":18,"category":{"id_category":73,"name":"Phim B\u1ed9","slug":"phim-bo","status":1},"movie_genre":[{"id":5,"name":"Phim v\u00f5 thu\u1eadt","slug":"phim-vo-thuat","status":1,"pivot":{"id_movie":622,"id_genre":5}}]},{"id":621,"name":"Wechat C\u1ee7a Ta Th\u00f4ng Long Cung","slug":"wechat-cua-ta-thong-long-cung","original_name":"My WeChat Trought Dragon Palace","total_episodes":60,"description":"Nam ch\u00ednh V\u00e2n L\u1ea1c c\u00f3 th\u00e2n th\u1ebf b\u00ed \u1ea9n, ho\u00e1 th\u00e2n th\u00e0nh \"L\u1ea1c Uy\u00ean th\u01b0\u1ee3ng ti\u00ean\" b\u1eaft \u0111\u1ea7u h\u00e0nh tr\u00ecnh tu ti\u00ean. H\u1eafn v\u00f4 t\u00ecnh b\u1ecb cu\u1ed1n v\u00e0o cu\u1ed9c ph\u00e2n tranh c\u00f3 m\u1ed9t kh\u00f4ng hai gi\u1eefa \u0110\u00e0o Hoa Nguy\u00ean v\u00e0 Lo\u1ea1n Tinh H\u1ea3i.","time":null,"thumb_url":"https:\/\/phim.nguonc.com\/public\/images\/Film\/870535.jpg","poster_url":"https:\/\/phim.nguonc.com\/public\/images\/Film\/870535.jpg","id_category":73,"id_country":7,"id_genre":"5","quality":"1","language":"1","director":null,"casts":null,"hot":1,"hot_slider":null,"trailer_url":null,"status":1,"created_at":"2025-02-18T10:11:27.000000Z","updated_at":"2025-02-18T10:11:27.000000Z","episode_count":58,"category":{"id_category":73,"name":"Phim B\u1ed9","slug":"phim-bo","status":1},"movie_genre":[{"id":5,"name":"Phim v\u00f5 thu\u1eadt","slug":"phim-vo-thuat","status":1,"pivot":{"id_movie":621,"id_genre":5}}]},{"id":620,"name":"Li\u00ean Minh Qu\u00e2n S\u01b0 (Ph\u1ea7n 2)","slug":"lien-minh-quan-su-phan-2","original_name":"Growling Tiger, Roaring Dragon (Season 2)","total_episodes":44,"description":"B\u1ed9 phim l\u1ea5y b\u1ed1i c\u1ea3nh th\u1eddi Tam Qu\u1ed1c, k\u1ec3 v\u1ec1 cu\u1ed9c \u0111\u1eddi truy\u1ec1n k\u1ef3 c\u1ee7a T\u01b0 M\u00e3 \u00dd, t\u00e1i hi\u1ec7n th\u1eddi k\u1ef3 h\u1eadu anh h\u00f9ng Tam Qu\u1ed1c \u0111\u1ea7y s\u00f3ng gi\u00f3.","time":"45 ph\u00fat\/t\u1eadp","thumb_url":"https:\/\/phim.nguonc.com\/public\/images\/Film\/lien-minh-quan-su-phan-2-thumb.jpg","poster_url":"https:\/\/phim.nguonc.com\/public\/images\/Film\/lien-minh-quan-su-phan-2-poster.jpg","id_category":73,"id_country":7,"id_genre":"5","quality":"1","language":"1","director":"Tr\u01b0\u01a1ng V\u0129nh T\u00e2n","casts":"Tr\u01b0\u01a1ng Qu\u00e2n Ninh, L\u01b0u \u0110\u00e0o, L\u00fd Th\u1ea7n, Ng\u00f4 T\u00fa Ba","hot":1,"hot_slider":null,"trailer_url":null,"status":1,"created_at":"2025-02-18T10:11:26.000000Z","updated_at":"2025-02-18T10:11:26.000000Z","episode_count":44,"category":{"id_category":73,"name":"Phim B\u1ed9","slug":"phim-bo","status":1},"movie_genre":[{"id":5,"name":"Phim v\u00f5 thu\u1eadt","slug":"phim-vo-thuat","status":1,"pivot":{"id_movie":620,"id_genre":5}}]},{"id":619,"name":"Khu Ngh\u1ec9 D\u01b0\u1ee1ng Hoa Sen Tr\u1eafng (Ph\u1ea7n 1)","slug":"khu-nghi-duong-hoa-sen-trang-phan-1","original_name":"The White Lotus (Season 1)","total_episodes":6,"description":"Ph\u1ea7n \u0111\u1ea7u ti\u00ean theo ch\u00e2n k\u1ef3 ngh\u1ec9 c\u1ee7a nhi\u1ec1u kh\u00e1ch s\u1ea1n trong su\u1ed1t m\u1ed9t tu\u1ea7n khi h\u1ecd th\u01b0 gi\u00e3n v\u00e0 tr\u1ebb h\u00f3a \u1edf thi\u00ean \u0111\u01b0\u1eddng. Nh\u01b0ng m\u1ed7i ng\u00e0y tr\u00f4i qua, m\u1ed9t s\u1ef1 ph\u1ee9c t\u1ea1p \u0111en t\u1ed1i h\u01a1n l\u1ea1i xu\u1ea5t hi\u1ec7n trong nh\u1eefng du kh\u00e1ch ho\u00e0n h\u1ea3o nh\u01b0 tranh v\u1ebd n\u00e0y, nh\u1eefng nh\u00e2n vi\u00ean vui v\u1ebb c\u1ee7a kh\u00e1ch s\u1ea1n v\u00e0 ch\u00ednh \u0111\u1ecba \u0111i\u1ec3m b\u00ecnh d\u1ecb n\u00e0y.","time":"70 ph\u00fat\/t\u1eadp","thumb_url":"https:\/\/phim.nguonc.com\/public\/images\/Post\/10\/khu-nghi-duong-hoa-sen-trang-phan-1.jpg","poster_url":"https:\/\/phim.nguonc.com\/public\/images\/Post\/10\/khu-nghi-duong-hoa-sen-trang-phan-1-1.jpg","id_category":73,"id_country":7,"id_genre":"5","quality":"1","language":"1","director":null,"casts":"F. Murray Abraham, Jennifer Coolidge, Adam DiMarco, Meghann Fahy, Beatrice Grann\u00f2, Jon Gries, Tom Hollander, Sabrina Impacciatore, Michael Imperioli, Theo James","hot":1,"hot_slider":null,"trailer_url":null,"status":1,"created_at":"2025-02-18T10:11:26.000000Z","updated_at":"2025-02-18T10:11:26.000000Z","episode_count":6,"category":{"id_category":73,"name":"Phim B\u1ed9","slug":"phim-bo","status":1},"movie_genre":[{"id":5,"name":"Phim v\u00f5 thu\u1eadt","slug":"phim-vo-thuat","status":1,"pivot":{"id_movie":619,"id_genre":5}}]},{"id":618,"name":"\u00c1m H\u01b0\u01a1ng Lai","slug":"am-huong-lai","original_name":"Scent of New Dawn","total_episodes":28,"description":"Gia t\u1ed9c \u0111i\u1ec1u ch\u1ebf h\u01b0\u01a1ng h\u00e0ng \u0111\u1ea7u Giang Th\u00e0nh b\u1ecb qu\u1ea3n gia ph\u00f3ng h\u1ecfa chi\u1ebfm \u0111o\u1ea1t t\u00e0i s\u1ea3n, c\u00f4 g\u00e1i m\u1ed3 c\u00f4i L\u00e2m Uy\u1ec3n Nguy\u1ec7t \u1ea9n m\u00ecnh nhi\u1ec1u n\u0103m, tr\u1edf v\u1ec1 \u0111\u1ec3 tr\u1ea3 th\u00f9. C\u00f4 t\u00ecnh c\u1edd t\u00e1i ng\u1ed9 v\u1edbi Tr\u01b0\u01a1ng H\u00e0n \u00dd, con trai c\u1ee7a qu\u1ea3n gia. Hai ng\u01b0\u1eddi h\u1ee3p s\u1ee9c tr\u1ea3 th\u00f9, \u0111\u1ea5u \u0111\u00e1 trong gia t\u1ed9c v\u00e0 c\u1ea1nh tranh tr\u00ean th\u01b0\u01a1ng tr\u01b0\u1eddng. T\u1eeb ti\u1ec3u vi\u1ec7n ngh\u00e8o n\u00e0n, h\u1ecd t\u1eebng b\u01b0\u1edbc v\u01b0\u01a1n l\u00ean \u0111\u1ebfn \u0111\u1ec9nh cao c\u1ee7a ng\u00e0nh th\u01b0\u01a1ng m\u1ea1i, c\u00f9ng nhau v\u01b0\u1ee3t qua mu\u00f4n v\u00e0n kh\u00f3 kh\u0103n, \u0111\u1ed1i \u0111\u1ea7u v\u1edbi k\u1ebb th\u00f9 v\u00e0 c\u1ea3 s\u1ed1 ph\u1eadn.","time":"13 ph\u00fat\/t\u1eadp","thumb_url":"https:\/\/phim.nguonc.com\/public\/images\/Post\/3\/am-huong-lai.jpg","poster_url":"https:\/\/phim.nguonc.com\/public\/images\/Post\/3\/am-huong-lai-1.jpg","id_category":73,"id_country":7,"id_genre":"5","quality":"1","language":"1","director":null,"casts":"L\u00e2m Tr\u1ea1ch Huy, Thang Gia V\u0103n, H\u1ed3 B\u00e1c V\u0103n, L\u01b0u T\u00edch Minh, M\u1ee5c L\u1ea1c \u00c2n, T\u0103ng Hi \u0110\u01b0\u1eddng","hot":1,"hot_slider":null,"trailer_url":null,"status":1,"created_at":"2025-02-18T10:11:25.000000Z","updated_at":"2025-02-18T10:11:25.000000Z","episode_count":26,"category":{"id_category":73,"name":"Phim B\u1ed9","slug":"phim-bo","status":1},"movie_genre":[{"id":5,"name":"Phim v\u00f5 thu\u1eadt","slug":"phim-vo-thuat","status":1,"pivot":{"id_movie":618,"id_genre":5}}]},{"id":617,"name":"L\u00fd C\u1ea9u Oa","slug":"ly-cau-oa","original_name":"Legal Boy","total_episodes":24,"description":"V\u1eadn may gi\u00e0u sang \u1eadp \u0111\u1ebfn b\u1ea5t ng\u1edd, anh c\u00f4ng nh\u00e2n ngh\u00e8o L\u00fd C\u1ea9u Oa v\u00f4 t\u00ecnh b\u01b0\u1edbc ch\u00e2n v\u00e0o th\u1ebf gi\u1edbi c\u1ee7a gia \u0111\u00ecnh gi\u00e0u c\u00f3, ch\u1ec9 v\u1edbi m\u1ee5c \u0111\u00edch \u0111\u00f2i l\u1ea1i c\u00f4ng b\u1eb1ng cho ng\u01b0\u1eddi anh em. Nh\u01b0ng kh\u00f4ng ng\u1edd t\u1ea5t c\u1ea3 l\u1ea1i l\u00e0 m\u1ed9t \u00e2m m\u01b0u gi\u1ebft ng\u01b0\u1eddi \u0111\u01b0\u1ee3c t\u00ednh to\u00e1n k\u1ef9 l\u01b0\u1ee1ng. S\u1ef1 xu\u1ea5t hi\u1ec7n c\u1ee7a anh \u0111\u00e3 ch\u00e2m ng\u00f2i cho cu\u1ed9c chi\u1ebfn th\u1eeba k\u1ebf c\u1ee7a t\u1eadp \u0111o\u00e0n \u0110\u00f4ng X\u00e1n, ba ng\u01b0\u1eddi con nh\u00e0 h\u1ecd Tr\u01b0\u01a1ng lao v\u00e0o \u0111\u1ea5u \u0111\u00e1 kh\u00f4ng khoan nh\u01b0\u1ee3ng, \u00e2m m\u01b0u ch\u1ed3ng ch\u1ea5t. L\u00fd C\u1ea9u Oa t\u1ea7m ng\u1ea9m t\u1ea7m ng\u1ea7m m\u00e0 \u0111\u1ea5m ch\u1ebft voi, t\u1eebng b\u01b0\u1edbc th\u00e2m nh\u1eadp v\u00e0o v\u00f2ng xo\u00e1y hi\u1ec3m \u00e1c. \u0110\u1ed1i m\u1eb7t v\u1edbi \u0111\u00e1m ng\u01b0\u1eddi l\u00f2ng lang d\u1ea1 s\u00f3i n\u00e0y, anh nh\u01b0 m\u1ed9t con gi\u00e1n \u0111\u00e1nh m\u00e3i kh\u00f4ng ch\u1ebft, v\u01b0\u1ee3t qua ngh\u1ecbch c\u1ea3nh h\u1ebft l\u1ea7n n\u00e0y \u0111\u1ebfn l\u1ea7n kh\u00e1c. Cu\u1ed1i c\u00f9ng, L\u00fd C\u1ea9u Oa theo \u0111u\u1ed5i ch\u00ednh ngh\u0129a \u0111\u00e3 l\u1eadt \u0111\u1ed5 kim t\u1ef1 th\u00e1p quy\u1ec1n l\u1ef1c, ph\u00e1 \u0111\u01b0\u1ee3c t\u00ecnh th\u1ebf nan gi\u1ea3i.","time":"8 ph\u00fat\/t\u1eadp","thumb_url":"https:\/\/phim.nguonc.com\/public\/images\/Post\/7\/ly-cau-oa.jpg","poster_url":"https:\/\/phim.nguonc.com\/public\/images\/Post\/7\/ly-cau-oa-1.jpg","id_category":73,"id_country":7,"id_genre":"5","quality":"1","language":"1","director":null,"casts":"L\u00fd Tu\u1ea5n \u0110\u00ecnh, Di\u00eau Ti\u1ec3u Ti\u1ec3u, D\u01b0\u01a1ng Y M\u1eb7c","hot":1,"hot_slider":null,"trailer_url":null,"status":1,"created_at":"2025-02-18T10:11:25.000000Z","updated_at":"2025-02-18T10:11:25.000000Z","episode_count":21,"category":{"id_category":73,"name":"Phim B\u1ed9","slug":"phim-bo","status":1},"movie_genre":[{"id":5,"name":"Phim v\u00f5 thu\u1eadt","slug":"phim-vo-thuat","status":1,"pivot":{"id_movie":617,"id_genre":5}}]},{"id":616,"name":"M\u1ea1n Th\u00e0nh","slug":"man-thanh","original_name":"City of Romance","total_episodes":22,"description":"C\u00e2u chuy\u1ec7n k\u1ec3 v\u1ec1 B\u1ea1ch Ti\u1ec3u \u0110\u00f3a, m\u1ed9t c\u00f4 g\u00e1i t\u1eebng b\u1ecb b\u1ea1o l\u1ef1c h\u1ecdc \u0111\u01b0\u1eddng th\u1eddi trung h\u1ecdc, \u0111\u00e3 v\u01b0\u1ee3t qua h\u00e0ng ng\u00e0n d\u1eb7m \u0111\u1ec3 thi \u0111\u1ed7 v\u00e0o \u0110\u1ea1i h\u1ecdc M\u1ea1n Th\u00e0nh v\u1edbi hy v\u1ecdng t\u00ecm \u0111\u01b0\u1ee3c danh h\u1ecda b\u00ed \u1ea9n Black. Tuy nhi\u00ean, c\u00e2u l\u1ea1c b\u1ed9 truy\u1ec7n tranh m\u00e0 c\u00f4 h\u01b0\u1edbng \u0111\u1ebfn \u0111ang \u0111\u1ee9ng tr\u01b0\u1edbc nguy c\u01a1 gi\u1ea3i th\u1ec3. \u0110\u1ec3 c\u1ee9u v\u00e3n t\u00ecnh th\u1ebf, B\u1ea1ch Ti\u1ec3u \u0110\u00f3a \u0111\u00e3 n\u00f3i d\u1ed1i r\u1eb1ng m\u00ecnh l\u00e0 tr\u1ee3 l\u00fd c\u1ee7a Black, h\u00e0nh \u0111\u1ed9ng n\u00e0y khi\u1ebfn c\u00f4 thu h\u00fat s\u1ef1 ch\u00fa \u00fd \u0111\u1eb7c bi\u1ec7t t\u1eeb T\u00f4 Ng\u00f4n Th\u00e0nh - ng\u01b0\u1eddi c\u00f3 danh t\u00ednh th\u1eadt s\u1ef1 ch\u00ednh l\u00e0 Black. V\u1ed1n l\u00e0 ng\u01b0\u1eddi gh\u00e9t s\u1ef1 d\u1ed1i tr\u00e1, T\u00f4 Ng\u00f4n Th\u00e0nh ngay l\u1eadp t\u1ee9c n\u1ea3y sinh \u00e1c c\u1ea3m v\u1edbi B\u1ea1ch Ti\u1ec3u \u0110\u00f3a. Nh\u01b0ng trong qu\u00e1 tr\u00ecnh \u0111\u1ed1i \u0111\u1ea7u v\u00e0 hi\u1ec3u nhau, c\u1ea3 hai d\u1ea7n d\u1ea7n ch\u1eefa l\u00e0nh nh\u1eefng v\u1ebft th\u01b0\u01a1ng l\u00f2ng s\u00e2u k\u00edn trong t\u00e2m h\u1ed3n nhau.","time":"32 ph\u00fat\/t\u1eadp","thumb_url":"https:\/\/phim.nguonc.com\/public\/images\/Post\/8\/man-thanh.jpg","poster_url":"https:\/\/phim.nguonc.com\/public\/images\/Post\/8\/man-thanh-1.jpg","id_category":73,"id_country":7,"id_genre":"5","quality":"1","language":"1","director":null,"casts":"D\u01b0 Th\u1eeba \u00c2n, V\u01b0\u01a1ng T\u1eed Tuy\u1ec1n, Gao Mao Tong, L\u00e2m Th\u1ea5t D\u01b0, T\u1eeb T\u00e2n","hot":1,"hot_slider":null,"trailer_url":null,"status":1,"created_at":"2025-02-18T10:11:03.000000Z","updated_at":"2025-02-18T10:11:03.000000Z","episode_count":12,"category":{"id_category":73,"name":"Phim B\u1ed9","slug":"phim-bo","status":1},"movie_genre":[{"id":5,"name":"Phim v\u00f5 thu\u1eadt","slug":"phim-vo-thuat","status":1,"pivot":{"id_movie":616,"id_genre":5}}]},{"id":615,"name":"M\u1ef9 Nh\u00e2n Tr\u1edf V\u1ec1","slug":"my-nhan-tro-ve","original_name":"Return of Fated Love","total_episodes":24,"description":"D\u01b0 S\u01a1 T\u00e2m v\u00e0 Ch\u00e2u S\u1edf Minh v\u1ed1n l\u00e0 m\u1ed9t c\u1eb7p v\u1ee3 ch\u1ed3ng y\u00eau nhau s\u00e2u \u0111\u1eadm, nh\u01b0ng cu\u1ed1i c\u00f9ng cu\u1ed9c h\u00f4n nh\u00e2n c\u1ee7a h\u1ecd tan v\u1ee1 v\u00ec s\u1ef1 chen ch\u00e2n c\u1ee7a L\u00e2m Thanh Thanh. Kh\u00f4ng ch\u1ec9 m\u1ea5t \u0111i \u0111\u1ee9a con, D\u01b0 S\u01a1 T\u00e2m c\u00f2n su\u00fdt m\u1ea5t m\u1ea1ng. C\u00f4 tuy\u1ec7t v\u1ecdng ngh\u0129 \u0111\u1ebfn nh\u1eefng g\u00ec m\u00e0 m\u00ecnh v\u00e0 gia \u0111\u00ecnh g\u1eb7p ph\u1ea3i, c\u1ed1 ch\u1ed1ng tinh th\u1ea7n \u0111ang tr\u00ean b\u1edd v\u1ef1c s\u1ee5p \u0111\u1ed5. C\u00f4 quy\u1ebft \u0111\u1ecbnh gi\u1ea3 v\u1edd b\u1ecb m\u1ea5t tr\u00ed nh\u1edb c\u00f3 ch\u1ecdn l\u1ecdc, gi\u1eef k\u00fd \u1ee9c d\u1eebng l\u1ea1i \u1edf th\u1eddi \u0111i\u1ec3m m\u1edbi k\u1ebft h\u00f4n v\u1edbi Ch\u00e2u S\u1edf Minh. Nh\u1edd \u0111\u00f3 c\u00f4 c\u00f3 th\u1ec3 quay l\u1ea1i nh\u00e0 h\u1ecd Ch\u00e2u, \u00e2m th\u1ea7m thu th\u1eadp ch\u1ee9ng c\u1ee9, t\u1eebng b\u01b0\u1edbc khi\u1ebfn nh\u1eefng k\u1ebb \u0111\u00e3 h\u1ea1i c\u00f4 ph\u1ea3i tr\u1ea3 gi\u00e1 th\u00edch \u0111\u00e1ng.","time":"12 ph\u00fat\/t\u1eadp","thumb_url":"https:\/\/phim.nguonc.com\/public\/images\/Post\/8\/my-nhan-tro-ve.jpg","poster_url":"https:\/\/phim.nguonc.com\/public\/images\/Post\/8\/my-nhan-tro-ve-1.jpg","id_category":73,"id_country":7,"id_genre":"5","quality":"1","language":"1","director":null,"casts":"Bao Th\u1ea7n Hi, Ng\u00f4 Qu\u00fd Phong, Khu\u1ea5t Uy\u1ec3n Qu\u1ef3nh, V\u01b0\u01a1ng S\u00e2m","hot":1,"hot_slider":null,"trailer_url":null,"status":1,"created_at":"2025-02-18T10:11:02.000000Z","updated_at":"2025-02-18T10:11:02.000000Z","episode_count":18,"category":{"id_category":73,"name":"Phim B\u1ed9","slug":"phim-bo","status":1},"movie_genre":[{"id":5,"name":"Phim v\u00f5 thu\u1eadt","slug":"phim-vo-thuat","status":1,"pivot":{"id_movie":615,"id_genre":5}}]},{"id":614,"name":"Ph\u00f3 Nh\u1eadn","slug":"pho-nhan","original_name":"Born To Die","total_episodes":24,"description":"N\u1eef t\u01b0\u1edbng qu\u00e2n T\u1ed1ng \u0110i\u1ec3m T\u00e2m c\u1ee7a n\u01b0\u1edbc H\u1ea3i Ng\u00e2n b\u1ecb vu oan th\u00f4ng \u0111\u1ed3ng v\u1edbi \u0111\u1ecbch v\u00e0 ch\u1ebft th\u1ea3m. Tr\u01b0\u1edbc khi ch\u1ebft, c\u00f4 ph\u00e1t hi\u1ec7n ra k\u1ebb \u0111\u00e3 h\u00e3m h\u1ea1i m\u00ecnh ch\u00ednh l\u00e0 v\u1ecb h\u00f4n phu Th\u1ea9m M\u1ed9 T\u01b0. Khi s\u1ed1ng l\u1ea1i, T\u1ed1ng \u0110i\u1ec3m T\u00e2m quy\u1ebft \u0111o\u00e1n h\u1ee7y h\u00f4n \u01b0\u1edbc, m\u1edf m\u00e0n b\u1eb1ng m\u1ed9t tr\u1eadn \u0111\u00f2n t\u00e0n nh\u1eabn v\u1edbi trai t\u1ed3i, t\u1ef1 tay x\u1eed l\u00fd k\u1ebb \u0111\u1ecbch. Nh\u01b0ng kh\u00f4ng ng\u1edd Th\u1ea9m M\u1ed9 T\u01b0 c\u0169ng ch\u1ec9 b\u1ecb k\u1ebb gian h\u00e3m h\u1ea1i, sau khi s\u1ed1ng l\u1ea1i, h\u1eafn v\u1eeba theo \u0111u\u1ed5i t\u00ecnh y\u00eau v\u1eeba truy t\u00ecm ch\u00e2n t\u01b0\u1edbng. T\u1eeb \u0111\u00f3, c\u1ea3 hai b\u1eaft \u0111\u1ea7u m\u1ed9t cu\u1ed9c t\u00ecnh gi\u1eb1ng co ng\u01b0\u1eddi ch\u1ea1y k\u1ebb \u0111u\u1ed5i, v\u1eeba y\u00eau v\u1eeba h\u1eadn \u0111\u1ea7y k\u1ecbch t\u00ednh.","time":"15 ph\u00fat\/t\u1eadp","thumb_url":"https:\/\/phim.nguonc.com\/public\/images\/Post\/7\/pho-nhan.jpg","poster_url":"https:\/\/phim.nguonc.com\/public\/images\/Post\/7\/pho-nhan-1.jpg","id_category":73,"id_country":7,"id_genre":"5","quality":"1","language":"1","director":null,"casts":"T\u00f4n Th\u1ea7n Tu\u1ea5n, H\u1ed3 Di\u1ec7c Dao, V\u01b0\u01a1ng Tinh V\u0129, Ki\u1ec1u T\u1ecbnh V\u0103n, L\u00f4i Ch\u00fa","hot":1,"hot_slider":null,"trailer_url":null,"status":1,"created_at":"2025-02-18T10:11:02.000000Z","updated_at":"2025-02-18T10:11:02.000000Z","episode_count":16,"category":{"id_category":73,"name":"Phim B\u1ed9","slug":"phim-bo","status":1},"movie_genre":[{"id":5,"name":"Phim v\u00f5 thu\u1eadt","slug":"phim-vo-thuat","status":1,"pivot":{"id_movie":614,"id_genre":5}}]}],"first_page_url":"http:\/\/127.0.0.1:8000\/movie?page=1","from":1,"last_page":36,"last_page_url":"http:\/\/127.0.0.1:8000\/movie?page=36","links":[{"url":null,"label":"&laquo; Previous","active":false},{"url":"http:\/\/127.0.0.1:8000\/movie?page=1","label":"1","active":true},{"url":"http:\/\/127.0.0.1:8000\/movie?page=2","label":"2","active":false},{"url":"http:\/\/127.0.0.1:8000\/movie?page=3","label":"3","active":false},{"url":"http:\/\/127.0.0.1:8000\/movie?page=4","label":"4","active":false},{"url":"http:\/\/127.0.0.1:8000\/movie?page=5","label":"5","active":false},{"url":"http:\/\/127.0.0.1:8000\/movie?page=6","label":"6","active":false},{"url":"http:\/\/127.0.0.1:8000\/movie?page=7","label":"7","active":false},{"url":"http:\/\/127.0.0.1:8000\/movie?page=8","label":"8","active":false},{"url":"http:\/\/127.0.0.1:8000\/movie?page=9","label":"9","active":false},{"url":"http:\/\/127.0.0.1:8000\/movie?page=10","label":"10","active":false},{"url":null,"label":"...","active":false},{"url":"http:\/\/127.0.0.1:8000\/movie?page=35","label":"35","active":false},{"url":"http:\/\/127.0.0.1:8000\/movie?page=36","label":"36","active":false},{"url":"http:\/\/127.0.0.1:8000\/movie?page=2","label":"Next &raquo;","active":false}],"next_page_url":"http:\/\/127.0.0.1:8000\/movie?page=2","path":"http:\/\/127.0.0.1:8000\/movie","per_page":10,"prev_page_url":null,"to":10,"total":357}